-------------------------------------------------------------------------------
Test set: com.leaseplan.runners.CukesRunner
-------------------------------------------------------------------------------
Tests run: 1, Failures: 0, Errors: 1, Skipped: 0, Time elapsed: 0 s <<< FAILURE! - in com.leaseplan.runners.CukesRunner
initializationError(com.leaseplan.runners.CukesRunner)  Time elapsed: 0 s  <<< ERROR!
java.lang.NoClassDefFoundError: cucumber/runtime/io/ResourceLoader
Caused by: java.lang.ClassNotFoundException: cucumber.runtime.io.ResourceLoader

